Project 1
…
Then calculate the frequency.

freq_inaug <- speech_token %>%
    group_by(author) %>%
    count(word, sort = TRUE)%>%
    left_join(speech_token %>%
                  group_by(author) %>%
                  summarise(total = n())) %>%
    mutate(freq = n/total)

## Joining, by = "author"

freq_inaug

## Source: local data frame [31,083 x 5]
## Groups: author [40]
## 
##                  author         word     n total       freq
##                   <chr>        <chr> <int> <int>      <dbl>
## 1  WilliamHenryHarrison        power    47  2923 0.01607937
## 2            JamesKPolk   government    44  1839 0.02392605
## 3  WilliamHenryHarrison       people    38  2923 0.01300034
## 4       WilliamMcKinley       people    37  2344 0.01578498
## 5  WilliamHenryHarrison constitution    36  2923 0.01231611
## 6  WilliamHenryHarrison   government    36  2923 0.01231611
## 7       WilliamMcKinley   government    36  2344 0.01535836
## 8            JamesKPolk        union    32  1839 0.01740076
## 9           JamesMonroe   government    32  2754 0.01161946
## 10         RichardNixon        peace    32  1312 0.02439024
## # ... with 31,073 more rows
…
